<define-tag pagetitle>DSA-4746-1 net-snmp</define-tag>
<define-tag report_date>2020-8-15</define-tag>
<define-tag secrefs>CVE-2020-15861 CVE-2020-15862 Bug#965166 Bug#966599</define-tag>
<define-tag packages>net-snmp</define-tag>
<define-tag isvulnerable>yes</define-tag>
<define-tag fixed>yes</define-tag>
<define-tag fixed-section>no</define-tag>

#use wml::debian::security



</dl>
