<define-tag pagetitle>DLA-2221-1 sqlite3</define-tag>
<define-tag report_date>2020-05-26</define-tag>
<define-tag secrefs>CVE-2020-13434</define-tag>
<define-tag packages>sqlite3</define-tag>
<define-tag isvulnerable>yes</define-tag>
<define-tag fixed>yes</define-tag>
<define-tag fixed-section>no</define-tag>

#use wml::debian::security

