<define-tag pagetitle>DLA-2419-1 dompurify.js</define-tag>
<define-tag report_date>2020-10-29</define-tag>
<define-tag secrefs>CVE-2019-16728 CVE-2020-26870</define-tag>
<define-tag packages>dompurify.js</define-tag>
<define-tag isvulnerable>yes</define-tag>
<define-tag fixed>yes</define-tag>
<define-tag fixed-section>no</define-tag>

#use wml::debian::security

