<define-tag pagetitle>DLA-2204-1 mailman</define-tag>
<define-tag report_date>2020-05-07</define-tag>
<define-tag secrefs>CVE-2020-12108</define-tag>
<define-tag packages>mailman</define-tag>
<define-tag isvulnerable>yes</define-tag>
<define-tag fixed>yes</define-tag>
<define-tag fixed-section>no</define-tag>

#use wml::debian::security
