<define-tag pagetitle>DLA-1540-1 net-snmp</define-tag>
<define-tag report_date>2018-10-9</define-tag>
<define-tag secrefs>CVE-2018-18065 Bug#910638</define-tag>
<define-tag packages>net-snmp</define-tag>
<define-tag isvulnerable>yes</define-tag>
<define-tag fixed>yes</define-tag>
<define-tag fixed-section>no</define-tag>

#use wml::debian::security

