<define-tag pagetitle>DLA-1580-1 systemd</define-tag>
<define-tag report_date>2018-11-19</define-tag>
<define-tag secrefs>CVE-2018-1049 CVE-2018-15686 CVE-2018-15688 Bug#912005 Bug#912008</define-tag>
<define-tag packages>systemd</define-tag>
<define-tag isvulnerable>yes</define-tag>
<define-tag fixed>yes</define-tag>
<define-tag fixed-section>no</define-tag>

#use wml::debian::security

