<define-tag pagetitle>DLA-1710-1 xmltooling</define-tag>
<define-tag report_date>2019-03-13</define-tag>
<define-tag secrefs>CVE-2019-9628 Bug#924346</define-tag>
<define-tag packages>xmltooling</define-tag>
<define-tag isvulnerable>yes</define-tag>
<define-tag fixed>yes</define-tag>
<define-tag fixed-section>no</define-tag>

#use wml::debian::security

