<define-tag pagetitle>DLA-1775-1 phpbb3</define-tag>
<define-tag report_date>2019-5-4</define-tag>
<define-tag secrefs>CVE-2019-9826</define-tag>
<define-tag packages>phpbb3</define-tag>
<define-tag isvulnerable>yes</define-tag>
<define-tag fixed>yes</define-tag>
<define-tag fixed-section>no</define-tag>

#use wml::debian::security

