<define-tag pagetitle>DLA-711-1 curl</define-tag>
<define-tag report_date>2016-11-17</define-tag>
<define-tag secrefs>CVE-2016-8615 CVE-2016-8616 CVE-2016-8617 CVE-2016-8618 CVE-2016-8619 CVE-2016-8621 CVE-2016-8622 CVE-2016-8623 CVE-2016-8624</define-tag>
<define-tag packages>curl</define-tag>
<define-tag isvulnerable>yes</define-tag>
<define-tag fixed>yes</define-tag>
<define-tag fixed-section>no</define-tag>

#use wml::debian::security

