<define-tag pagetitle>DLA-766-1 libcrypto++</define-tag>
<define-tag report_date>2016-12-27</define-tag>
<define-tag secrefs>CVE-2016-9939 Bug#848009</define-tag>
<define-tag packages>libcrypto++</define-tag>
<define-tag isvulnerable>yes</define-tag>
<define-tag fixed>yes</define-tag>
<define-tag fixed-section>no</define-tag>

#use wml::debian::security

